Lab 2
…
The oldest painting at MoMA is “Landscape at Daybreak” by Odilon Redon

4.4 How many artists?

artworks_clean %>% distinct(artist) %>% nrow()

[1] 989

There are 989 distinct artists

4.5 Which artist has the most paintings?

artworks_clean %>% group_by(artist) %>% tally() %>% arrange(desc(n))

# A tibble: 989 × 2
   artist               n
   <chr>            <int>
 1 Pablo Picasso       55
 2 Henri Matisse       32
 3 On Kawara           32
 4 Jacob Lawrence      30
 5 Batiste Madalena    25
 6 Jean Dubuffet       25
 7 Odilon Redon        25
 8 Ben Vautier         24
 9 Frank Stella        23
10 Philip Guston       23
# ℹ 979 more rows
…
